…
A typical `select()` call looks like this:  
`select(<data>, <variables>)`

If you want to select the `loudness` variable, you run this:

``` r
select(spotify, loudness)
```

    ## # A tibble: 787 x 1
    ##    loudness
    ##       <dbl>
    ##  1    -9.66
    ##  2    -5.63
    ##  3    -6.36
    ##  4    -7.43
    ##  5    -9.02
    ##  6    -8.90
    ##  7    -5.98
    ##  8    -7.65
    ##  9    -7.74
    ## 10   -10.8 
    ## # … with 777 more rows
Notice how it returned a data frame of the `loudness` variable, rather
than a list or vector\!

If you want to extract more than one variable you can include them,
separated by commas, as arguments to the function:  
`select(spotify, loudness, instrumentalness, key)`

Or, you can provide the variables as a vector\! They will return the
same thing.

``` r
select(spotify, c(loudness, instrumentalness, key))
```

    ## # A tibble: 787 x 3
    ##    loudness instrumentalness   key
    ##       <dbl>            <dbl> <dbl>
    ##  1    -9.66       0.386          2
    ##  2    -5.63       0              1
    ##  3    -6.36       0              7
    ##  4    -7.43       0              7
    ##  5    -9.02       0.0136         2
    ##  6    -8.90       0.0000257      4
    ##  7    -5.98       0.00046        0
    ##  8    -7.65       0              0
    ##  9    -7.74       0.00000431     1
    ## 10   -10.8        0.0000393      4
    ## # … with 777 more rows
…
**Exercise 1**

Use the example below to get a feel for `select()`. Can you extract just
the `artist` column? How about the `artist` and `energy` columns?

``` r
select(spotify, loudness)
```

    ## # A tibble: 787 x 1
    ##    loudness
    ##       <dbl>
    ##  1    -9.66
    ##  2    -5.63
    ##  3    -6.36
    ##  4    -7.43
    ##  5    -9.02
    ##  6    -8.90
    ##  7    -5.98
    ##  8    -7.65
    ##  9    -7.74
    ## 10   -10.8 
    ## # … with 777 more rows
…
-----

Let’s look at another example before moving on to exercises. Tracks with
an `instrumentalness` value greater than 0.5 are considered to likely be
instrumental, according to the [metadata](data/meta.html). Let’s see
which tracks are instrumental\!

``` r
filter(spotify, instrumentalness > 0.5)
```

    ## # A tibble: 55 x 17
    ##     rank track artist time_period danceability energy   key loudness  mode
    ##    <dbl> <chr> <chr>  <chr>              <dbl>  <dbl> <dbl>    <dbl> <dbl>
    ##  1    13 ASTR… Travi… pre                0.784 0.539      6   -10.0      0
    ##  2    25 Baby… DaBaby pre                0.324 0.532      1   -34.8      1
    ##  3    34 Whil… Kehla… pre                0.622 0.347      9   -15.9      0
    ##  4    39 Hami… Origi… pre                0.667 0.322      4   -19.3      0
    ##  5    66 Cult… Migos  pre                0.613 0.647      0    -6.68     0
    ##  6    67 This… Gary … pre                0.553 0.0252     0   -26.3      1
    ##  7    93 More… Drake  pre                0.707 0.258     11   -10.7      0
    ##  8    99 Perc… NF     pre                0.243 0.893      3    -4.82     0
    ##  9   116 Nigh… Imagi… pre                0.808 0.441      7   -13.4      0
    ## 10   125 BALL… Joji   pre                0.404 0.183      7   -19.0      1
    ## # … with 45 more rows, and 8 more variables: speechiness <dbl>,
    ## #   acousticness <dbl>, instrumentalness <dbl>, liveness <dbl>, valence <dbl>,
    ## #   tempo <dbl>, duration_ms <dbl>, time_signature <dbl>

Huh, it seems like this isn’t a strict enough filter. There are quite a
few tracks that definitely have words in them here. Let’s increase the
filter to 0.8 and see where that gets us.

``` r
filter(spotify, instrumentalness > 0.8)
```

    ## # A tibble: 33 x 17
    ##     rank track artist time_period danceability  energy   key loudness  mode
    ##    <dbl> <chr> <chr>  <chr>              <dbl>   <dbl> <dbl>    <dbl> <dbl>
    ##  1    25 Baby… DaBaby pre               0.324  0.532       1    -34.8     1
    ##  2    34 Whil… Kehla… pre               0.622  0.347       9    -15.9     0
    ##  3    39 Hami… Origi… pre               0.667  0.322       4    -19.3     0
    ##  4    67 This… Gary … pre               0.553  0.0252      0    -26.3     1
    ##  5   116 Nigh… Imagi… pre               0.808  0.441       7    -13.4     0
    ##  6   125 BALL… Joji   pre               0.404  0.183       7    -19.0     1
    ##  7   165 Delta Mumfo… pre               0.0757 0.00429     2    -38.5     1
    ##  8   176 NOW … Vario… pre               0.466  0.531       6    -10.1     0
    ##  9   182 Simo… Simon… pre               0.839  0.392       0    -12.1     1
    ## 10   197 Illu… Shawn… pre               0      0.00983    10    -28.3     0
    ## # … with 23 more rows, and 8 more variables: speechiness <dbl>,
    ## #   acousticness <dbl>, instrumentalness <dbl>, liveness <dbl>, valence <dbl>,
    ## #   tempo <dbl>, duration_ms <dbl>, time_signature <dbl>
…
**Exercise 1**

``` r
select(spotify, artist)
select(spotify, artist, energy)
```

**Exercise 2**

``` r
spotify %>% select(contains("n"))
```

    ## # A tibble: 787 x 11
    ##     rank danceability energy loudness speechiness acousticness instrumentalness
    ##    <dbl>        <dbl>  <dbl>    <dbl>       <dbl>        <dbl>            <dbl>
    ##  1     1        0.427  0.407    -9.66      0.0382       0.612        0.386     
    ##  2     2        0.717  0.653    -5.63      0.0658       0.229        0         
    ##  3     3        0.572  0.385    -6.36      0.0308       0.371        0         
    ##  4     4        0.793  0.399    -7.43      0.0951       0.12         0         
    ##  5     5        0.826  0.513    -9.02      0.0349       0.327        0.0136    
    ##  6     6        0.807  0.414    -8.90      0.0352       0.105        0.0000257 
    ##  7     7        0.245  0.773    -5.98      0.0525       0.0665       0.00046   
    ##  8     8        0.916  0.756    -7.65      0.188        0.0942       0         
    ##  9     9        0.736  0.515    -7.74      0.163        0.384        0.00000431
    ## 10    10        0.775  0.465   -10.8       0.0605       0.615        0.0000393 
    ## # … with 777 more rows, and 4 more variables: liveness <dbl>, valence <dbl>,
    ## #   duration_ms <dbl>, time_signature <dbl>
…
