…
1.  Filter `spotify` to just Rap songs, then
2.  Select the `loudness` and `energy` columns from the result

<!-- end list -->

``` r
rap <- filter(spotify, genre == "Rap")
rap <- select(rap, loudness, energy)
rap
```

    ## # A tibble: 1,000 x 2
    ##    loudness energy
    ##       <dbl>  <dbl>
    ##  1    -6.71  0.570
    ##  2   -13.1   0.297
    ##  3    -5.05  0.638
    ##  4    -6.58  0.705
    ##  5   -10.6   0.612
    ##  6    -8.97  0.762
    ##  7    -4.57  0.580
    ##  8    -7.00  0.656
    ##  9    -5.76  0.503
    ## 10    -8.42  0.593
    ## # … with 990 more rows
…
The pipe operator `%>%` performs an extremely simple task: it passes the
result on its left into the first argument of the function on its right.
Or put another way, `x %>% f(y)` is the same as `f(x, y)`. This piece of
code punctuation makes it easy to write and read series of functions
that are applied in a step by step way. For example, we can use the pipe
to rewrite our code above:

``` r
spotify %>% 
  filter(genre == "Rap") %>% 
  select(loudness, energy)
```

    ## # A tibble: 1,000 x 2
    ##    loudness energy
    ##       <dbl>  <dbl>
    ##  1    -6.71  0.570
    ##  2   -13.1   0.297
    ##  3    -5.05  0.638
    ##  4    -6.58  0.705
    ##  5   -10.6   0.612
    ##  6    -8.97  0.762
    ##  7    -4.57  0.580
    ##  8    -7.00  0.656
    ##  9    -5.76  0.503
    ## 10    -8.42  0.593
    ## # … with 990 more rows
…
-----

## Answers

**Exercise 1**

``` r
spotify %>% 
  filter(danceability > 0.50) %>% 
  select(tempo, energy) 
```

    ## # A tibble: 16,727 x 2
    ##    tempo energy
    ##    <dbl>  <dbl>
    ##  1  79.8  0.647
    ##  2 141.   0.917
    ##  3  93.1  0.606
    ##  4 126.   0.973
    ##  5 108.   0.919
    ##  6 132.   0.889
    ##  7 119.   0.761
    ##  8  79.6  0.611
    ##  9 120.   0.613
    ## 10 100.   0.816
    ## # … with 16,717 more rows
…
