…
### group\_by() in action

For example, the result below is grouped into rows that have the same
genre.

``` r
spotify %>%
  group_by(genre)
```

    ## # A tibble: 26,000 x 6
    ## # Groups:   genre [26]
    ##    genre    energy loudness tempo danceability lyrics                           
    ##    <chr>     <dbl>    <dbl> <dbl>        <dbl> <chr>                            
    ##  1 Alterna…  0.647    -8.51  79.8        0.709 into into into of him by economi…
    ##  2 Alterna…  0.735    -4.75 163.         0.436 paying fishing realizes Johnson …
    ##  3 Alterna…  0.917    -6.09 141.         0.544 man has happened then to his by …
    ##  4 Alterna…  0.606    -5.06  93.1        0.603 realizes him Johnson I flees his…
    ##  5 Alterna…  0.641    -5.10 142.         0.487 she he his by before then depict…
    ##  6 Alterna…  0.973    -3.64 126.         0.524 she mainland Mark Mr. depicts ec…
    ##  7 Alterna…  0.919    -5.94 108.         0.657 by charter forced into who is aw…
    ##  8 Alterna…  0.889    -4.43 132.         0.611 by forced any Mark slipping main…
    ##  9 Alterna…  0.761    -4.47 119.         0.675 Mark she mainland without Johnso…
    ## 10 Alterna…  0.611    -5.74  79.6        0.584 away airplane I his his she man …
    ## # … with 25,990 more rows
…
However, when you apply a dplyr function like `summarise()` to grouped
data, dplyr will execute the function in a groupwise manner. Instead of
computing a single summary for the entire data set, dplyr will compute
individual summaries for each group and return them as a single data
frame. The data frame will contain the summary columns as well as the
columns in the grouping criteria, which makes the result decipherable:

``` r
spotify %>%
  group_by(genre) %>% 
  summarise(min_loud = min(loudness))
```

    ## # A tibble: 26 x 2
    ##    genre            min_loud
    ##    <chr>               <dbl>
    ##  1 Alternative         -22.2
    ##  2 Anime               -30.7
    ##  3 Blues               -24.8
    ##  4 Children's Music    -29.5
    ##  5 Children’s Music    -18.4
    ##  6 Classical           -47.6
    ##  7 Comedy              -29.2
    ##  8 Country             -24.7
    ##  9 Dance               -16.5
    ## 10 Electronic          -23.4
    ## # … with 16 more rows
…
