…
Let’s take a look at the data set. I will demonstrate two ways to do
this, although there are many functions available to view your data. The
first is just to print the data set to the screen. Notice the `<dbl>`
and `<chr>` notes below each column name. This is telling you what type
of data each column contains. You should also see information about how
many rows and columns are in the data. It’s always useful to check both
of these data characteristics during an analysis to make sure you aren’t
getting rid of data that you need and only keeping data that you want.

``` r
spotify
```

    ## # A tibble: 787 x 17
    ##     rank track artist time_period danceability energy   key loudness  mode
    ##    <dbl> <chr> <chr>  <chr>              <dbl>  <dbl> <dbl>    <dbl> <dbl>
    ##  1     1 Wast… Hozier pre                0.427  0.407     2    -9.66     1
    ##  2     2 Than… Arian… pre                0.717  0.653     1    -5.63     1
    ##  3     3 A St… Lady … pre                0.572  0.385     7    -6.36     1
    ##  4     4 Rap … 2 Cha… pre                0.793  0.399     7    -7.43     1
    ##  5     5 Shel… Lil S… pre                0.826  0.513     2    -9.02     1
    ##  6     6 Bohe… Queen  pre                0.807  0.414     4    -8.90     1
    ##  7     7 When… Solan… pre                0.245  0.773     0    -5.98     1
    ##  8     8 Drip… Gunna  pre                0.916  0.756     0    -7.65     1
    ##  9     9 FATH… Offset pre                0.736  0.515     1    -7.74     1
    ## 10    10 Hood… A Boo… pre                0.775  0.465     4   -10.8      0
    ## # … with 777 more rows, and 8 more variables: speechiness <dbl>,
    ## #   acousticness <dbl>, instrumentalness <dbl>, liveness <dbl>, valence <dbl>,
    ## #   tempo <dbl>, duration_ms <dbl>, time_signature <dbl>
…
